Taller 2 Lab/Restador archivos simulaciòn/top.vcd
$date
	Mon Oct  2 22:51:16 2023
$end
$version
	Icarus Verilog
$end
$timescale
	1s
$end
$scope module testbech $end
$var wire 5 ! outs [4:0] $end
$var reg 8 " inputs [7:0] $end
$var integer 32 # i [31:0] $end
$scope module dut $end
$var wire 1 $ A0 $end
$var wire 1 % A1 $end
$var wire 1 & A2 $end
$var wire 1 ' A3 $end
$var wire 1 ( B0 $end
$var wire 1 ) B1 $end
$var wire 1 * B2 $end
$var wire 1 + B3 $end
$var wire 1 , s6 $end
$var wire 1 - s5 $end
$var wire 1 . s4 $end
$var wire 1 / S3 $end
$var wire 1 0 S2 $end
$var wire 1 1 S1 $end
$var wire 1 2 S0 $end
$var wire 1 3 C_0ut $end
$scope module MedioRestador_i0 $end
$var wire 1 $ A $end
$var wire 1 ( B $end
$var wire 1 . C_out $end
$var wire 1 2 S $end
$upscope $end
$scope module RestadorCompleto_i1 $end
$var wire 1 % A $end
$var wire 1 ) B $end
$var wire 1 . C_in $end
$var wire 1 - C_out $end
$var wire 1 1 S $end
$upscope $end
$scope module RestadorCompleto_i2 $end
$var wire 1 & A $end
$var wire 1 * B $end
$var wire 1 - C_in $end
$var wire 1 , C_out $end
$var wire 1 0 S $end
$upscope $end
$scope module RestadorCompleto_i3 $end
$var wire 1 ' A $end
$var wire 1 + B $end
$var wire 1 , C_in $end
$var wire 1 3 C_out $end
$var wire 1 / S $end
$upscope $end
$upscope $end
$upscope $end
$enddefinitions $end
$comment Show the parameter values. $end
$dumpall
$end
#0
$dumpvars
03
02
01
00
0/
0.
0-
0,
0+
0*
0)
0(
0'
0&
0%
0$
b0 #
b0 "
b0 !
$end
#1
13
1/
1,
10
1-
11
b11111 !
12
1.
1(
b1 "
b1 #
#2
b11110 !
02
0.
0(
1)
b10 "
b10 #
#3
01
b11101 !
12
1.
1(
b11 "
b11 #
#4
0-
10
b11100 !
02
0.
0(
0)
1*
b100 "
b100 #
#5
00
1-
11
b11011 !
12
1.
1(
b101 "
b101 #
#6
b11010 !
02
0.
0(
1)
b110 "
b110 #
#7
01
b11001 !
12
1.
1(
b111 "
b111 #
#8
0,
0-
00
1/
b11000 !
02
0.
0(
0)
0*
1+
b1000 "
b1000 #
#9
0/
1,
10
1-
11
b10111 !
12
1.
1(
b1001 "
b1001 #
#10
b10110 !
02
0.
0(
1)
b1010 "
b1010 #
#11
01
b10101 !
12
1.
1(
b1011 "
b1011 #
#12
0-
10
b10100 !
02
0.
0(
0)
1*
b1100 "
b1100 #
#13
00
1-
11
b10011 !
12
1.
1(
b1101 "
b1101 #
#14
b10010 !
02
0.
0(
1)
b1110 "
b1110 #
#15
01
b10001 !
12
1.
1(
b1111 "
b1111 #
#16
03
0,
0-
00
b1 !
0/
0.
1$
0(
0)
0*
0+
b10000 "
b10000 #
#17
b0 !
02
1(
b10001 "
b10001 #
#18
13
1/
1,
10
1-
11
b11111 !
12
0(
1)
b10010 "
b10010 #
#19
b11110 !
02
1(
b10011 "
b10011 #
#20
0-
01
10
b11101 !
12
0(
0)
1*
b10100 "
b10100 #
#21
b11100 !
02
1(
b10101 "
b10101 #
#22
00
1-
11
b11011 !
12
0(
1)
b10110 "
b10110 #
#23
b11010 !
02
1(
b10111 "
b10111 #
#24
0,
0-
01
00
1/
b11001 !
12
0(
0)
0*
1+
b11000 "
b11000 #
#25
b11000 !
02
1(
b11001 "
b11001 #
#26
0/
1,
10
1-
11
b10111 !
12
0(
1)
b11010 "
b11010 #
#27
b10110 !
02
1(
b11011 "
b11011 #
#28
0-
01
10
b10101 !
12
0(
0)
1*
b11100 "
b11100 #
#29
b10100 !
02
1(
b11101 "
b11101 #
#30
00
1-
11
b10011 !
12
0(
1)
b11110 "
b11110 #
#31
b10010 !
02
1(
b11111 "
b11111 #
#32
03
0,
0-
00
b10 !
0/
0$
0(
1%
0)
0*
0+
b100000 "
b100000 #
#33
01
b1 !
12
1.
1(
b100001 "
b100001 #
#34
03
0/
0,
00
0-
b0 !
02
0.
0(
1)
b100010 "
b100010 #
#35
13
1/
1,
10
1-
11
b11111 !
12
1.
1(
b100011 "
b100011 #
#36
0-
10
b11110 !
02
0.
0(
0)
1*
b100100 "
b100100 #
#37
01
b11101 !
12
1.
1(
b100101 "
b100101 #
#38
10
0-
b11100 !
02
0.
0(
1)
b100110 "
b100110 #
#39
00
1-
11
b11011 !
12
1.
1(
b100111 "
b100111 #
#40
0,
0-
00
1/
b11010 !
02
0.
0(
0)
0*
1+
b101000 "
b101000 #
#41
01
b11001 !
12
1.
1(
b101001 "
b101001 #
#42
1/
0,
00
0-
b11000 !
02
0.
0(
1)
b101010 "
b101010 #
#43
0/
1,
10
1-
11
b10111 !
12
1.
1(
b101011 "
b101011 #
#44
0-
10
b10110 !
02
0.
0(
0)
1*
b101100 "
b101100 #
#45
01
b10101 !
12
1.
1(
b101101 "
b101101 #
#46
10
0-
b10100 !
02
0.
0(
1)
b101110 "
b101110 #
#47
00
1-
11
b10011 !
12
1.
1(
b101111 "
b101111 #
#48
03
0,
0-
00
b11 !
0/
0.
1$
0(
0)
0*
0+
b110000 "
b110000 #
#49
b10 !
02
1(
b110001 "
b110001 #
#50
01
b1 !
12
0(
1)
b110010 "
b110010 #
#51
b0 !
02
1(
b110011 "
b110011 #
#52
13
1/
1,
11
10
b11111 !
12
0(
0)
1*
b110100 "
b110100 #
#53
b11110 !
02
1(
b110101 "
b110101 #
#54
01
b11101 !
12
0(
1)
b110110 "
b110110 #
#55
b11100 !
02
1(
b110111 "
b110111 #
#56
0,
11
00
1/
b11011 !
12
0(
0)
0*
1+
b111000 "
b111000 #
#57
b11010 !
02
1(
b111001 "
b111001 #
#58
01
b11001 !
12
0(
1)
b111010 "
b111010 #
#59
b11000 !
02
1(
b111011 "
b111011 #
#60
0/
1,
11
10
b10111 !
12
0(
0)
1*
b111100 "
b111100 #
#61
b10110 !
02
1(
b111101 "
b111101 #
#62
01
b10101 !
12
0(
1)
b111110 "
b111110 #
#63
b10100 !
02
1(
b111111 "
b111111 #
#64
03
0,
b100 !
0/
0$
0(
0%
0)
1&
0*
0+
b1000000 "
b1000000 #
#65
00
1-
11
b11 !
12
1.
1(
b1000001 "
b1000001 #
#66
b10 !
02
0.
0(
1)
b1000010 "
b1000010 #
#67
01
b1 !
12
1.
1(
b1000011 "
b1000011 #
#68
03
0-
0/
0,
00
b0 !
02
0.
0(
0)
1*
b1000100 "
b1000100 #
#69
13
1/
1,
10
1-
11
b11111 !
12
1.
1(
b1000101 "
b1000101 #
#70
b11110 !
02
0.
0(
1)
b1000110 "
b1000110 #
#71
01
b11101 !
12
1.
1(
b1000111 "
b1000111 #
#72
0-
0,
10
1/
b11100 !
02
0.
0(
0)
0*
1+
b1001000 "
b1001000 #
#73
00
1-
11
b11011 !
12
1.
1(
b1001001 "
b1001001 #
#74
b11010 !
02
0.
0(
1)
b1001010 "
b1001010 #
#75
01
b11001 !
12
1.
1(
b1001011 "
b1001011 #
#76
0-
1/
0,
00
b11000 !
02
0.
0(
0)
1*
b1001100 "
b1001100 #
#77
0/
1,
10
1-
11
b10111 !
12
1.
1(
b1001101 "
b1001101 #
#78
b10110 !
02
0.
0(
1)
b1001110 "
b1001110 #
#79
01
b10101 !
12
1.
1(
b1001111 "
b1001111 #
#80
03
0-
0,
10
b101 !
0/
0.
1$
0(
0)
0*
0+
b1010000 "
b1010000 #
#81
b100 !
02
1(
b1010001 "
b1010001 #
#82
00
1-
11
b11 !
12
0(
1)
b1010010 "
b1010010 #
#83
b10 !
02
1(
b1010011 "
b1010011 #
#84
03
0-
0/
01
0,
00
b1 !
12
0(
0)
1*
b1010100 "
b1010100 #
#85
b0 !
02
1(
b1010101 "
b1010101 #
#86
13
1/
1,
10
1-
11
b11111 !
12
0(
1)
b1010110 "
b1010110 #
#87
b11110 !
02
1(
b1010111 "
b1010111 #
#88
0-
01
0,
10
1/
b11101 !
12
0(
0)
0*
1+
b1011000 "
b1011000 #
#89
b11100 !
02
1(
b1011001 "
b1011001 #
#90
00
1-
11
b11011 !
12
0(
1)
b1011010 "
b1011010 #
#91
b11010 !
02
1(
b1011011 "
b1011011 #
#92
0-
1/
01
0,
00
b11001 !
12
0(
0)
1*
b1011100 "
b1011100 #
#93
b11000 !
02
1(
b1011101 "
b1011101 #
#94
0/
1,
10
1-
11
b10111 !
12
0(
1)
b1011110 "
b1011110 #
#95
b10110 !
02
1(
b1011111 "
b1011111 #
#96
03
0-
0,
10
b110 !
0/
0$
0(
1%
0)
0*
0+
b1100000 "
b1100000 #
#97
01
b101 !
12
1.
1(
b1100001 "
b1100001 #
#98
10
0-
b100 !
02
0.
0(
1)
b1100010 "
b1100010 #
#99
00
1-
11
b11 !
12
1.
1(
b1100011 "
b1100011 #
#100
03
0/
0-
0,
00
b10 !
02
0.
0(
0)
1*
b1100100 "
b1100100 #
#101
01
b1 !
12
1.
1(
b1100101 "
b1100101 #
#102
03
0/
0,
00
0-
b0 !
02
0.
0(
1)
b1100110 "
b1100110 #
#103
13
1/
1,
10
1-
11
b11111 !
12
1.
1(
b1100111 "
b1100111 #
#104
0-
0,
10
1/
b11110 !
02
0.
0(
0)
0*
1+
b1101000 "
b1101000 #
#105
01
b11101 !
12
1.
1(
b1101001 "
b1101001 #
#106
10
0-
b11100 !
02
0.
0(
1)
b1101010 "
b1101010 #
#107
00
1-
11
b11011 !
12
1.
1(
b1101011 "
b1101011 #
#108
1/
0-
0,
00
b11010 !
02
0.
0(
0)
1*
b1101100 "
b1101100 #
#109
01
b11001 !
12
1.
1(
b1101101 "
b1101101 #
#110
1/
0,
00
0-
b11000 !
02
0.
0(
1)
b1101110 "
b1101110 #
#111
0/
1,
10
1-
11
b10111 !
12
1.
1(
b1101111 "
b1101111 #
#112
03
0-
0,
10
b111 !
0/
0.
1$
0(
0)
0*
0+
b1110000 "
b1110000 #
#113
b110 !
02
1(
b1110001 "
b1110001 #
#114
01
b101 !
12
0(
1)
b1110010 "
b1110010 #
#115
b100 !
02
1(
b1110011 "
b1110011 #
#116
11
00
b11 !
12
0(
0)
1*
b1110100 "
b1110100 #
#117
b10 !
02
1(
b1110101 "
b1110101 #
#118
01
b1 !
12
0(
1)
b1110110 "
b1110110 #
#119
b0 !
02
1(
b1110111 "
b1110111 #
#120
13
11
10
1/
b11111 !
12
0(
0)
0*
1+
b1111000 "
b1111000 #
#121
b11110 !
02
1(
b1111001 "
b1111001 #
#122
01
b11101 !
12
0(
1)
b1111010 "
b1111010 #
#123
b11100 !
02
1(
b1111011 "
b1111011 #
#124
11
00
b11011 !
12
0(
0)
1*
b1111100 "
b1111100 #
#125
b11010 !
02
1(
b1111101 "
b1111101 #
#126
01
b11001 !
12
0(
1)
b1111110 "
b1111110 #
#127
b11000 !
02
1(
b1111111 "
b1111111 #
#128
b1000 !
03
0$
0(
0%
0)
0&
0*
1'
0+
b10000000 "
b10000000 #
#129
0/
1,
10
1-
11
b111 !
12
1.
1(
b10000001 "
b10000001 #
#130
b110 !
02
0.
0(
1)
b10000010 "
b10000010 #
#131
01
b101 !
12
1.
1(
b10000011 "
b10000011 #
#132
0-
10
b100 !
02
0.
0(
0)
1*
b10000100 "
b10000100 #
#133
00
1-
11
b11 !
12
1.
1(
b10000101 "
b10000101 #
#134
b10 !
02
0.
0(
1)
b10000110 "
b10000110 #
#135
01
b1 !
12
1.
1(
b10000111 "
b10000111 #
#136
0,
0-
00
03
0/
b0 !
02
0.
0(
0)
0*
1+
b10001000 "
b10001000 #
#137
13
1/
1,
10
1-
11
b11111 !
12
1.
1(
b10001001 "
b10001001 #
#138
b11110 !
02
0.
0(
1)
b10001010 "
b10001010 #
#139
01
b11101 !
12
1.
1(
b10001011 "
b10001011 #
#140
0-
10
b11100 !
02
0.
0(
0)
1*
b10001100 "
b10001100 #
#141
00
1-
11
b11011 !
12
1.
1(
b10001101 "
b10001101 #
#142
b11010 !
02
0.
0(
1)
b10001110 "
b10001110 #
#143
01
b11001 !
12
1.
1(
b10001111 "
b10001111 #
#144
0,
0-
00
03
b1001 !
1/
0.
1$
0(
0)
0*
0+
b10010000 "
b10010000 #
#145
b1000 !
02
1(
b10010001 "
b10010001 #
#146
0/
1,
10
1-
11
b111 !
12
0(
1)
b10010010 "
b10010010 #
#147
b110 !
02
1(
b10010011 "
b10010011 #
#148
0-
01
10
b101 !
12
0(
0)
1*
b10010100 "
b10010100 #
#149
b100 !
02
1(
b10010101 "
b10010101 #
#150
00
1-
11
b11 !
12
0(
1)
b10010110 "
b10010110 #
#151
b10 !
02
1(
b10010111 "
b10010111 #
#152
0,
0-
01
00
03
0/
b1 !
12
0(
0)
0*
1+
b10011000 "
b10011000 #
#153
b0 !
02
1(
b10011001 "
b10011001 #
#154
13
1/
1,
10
1-
11
b11111 !
12
0(
1)
b10011010 "
b10011010 #
#155
b11110 !
02
1(
b10011011 "
b10011011 #
#156
0-
01
10
b11101 !
12
0(
0)
1*
b10011100 "
b10011100 #
#157
b11100 !
02
1(
b10011101 "
b10011101 #
#158
00
1-
11
b11011 !
12
0(
1)
b10011110 "
b10011110 #
#159
b11010 !
02
1(
b10011111 "
b10011111 #
#160
0,
0-
00
03
b1010 !
1/
0$
0(
1%
0)
0*
0+
b10100000 "
b10100000 #
#161
01
b1001 !
12
1.
1(
b10100001 "
b10100001 #
#162
1/
0,
00
0-
b1000 !
02
0.
0(
1)
b10100010 "
b10100010 #
#163
0/
1,
10
1-
11
b111 !
12
1.
1(
b10100011 "
b10100011 #
#164
0-
10
b110 !
02
0.
0(
0)
1*
b10100100 "
b10100100 #
#165
01
b101 !
12
1.
1(
b10100101 "
b10100101 #
#166
10
0-
b100 !
02
0.
0(
1)
b10100110 "
b10100110 #
#167
00
1-
11
b11 !
12
1.
1(
b10100111 "
b10100111 #
#168
0,
0-
00
03
0/
b10 !
02
0.
0(
0)
0*
1+
b10101000 "
b10101000 #
#169
01
b1 !
12
1.
1(
b10101001 "
b10101001 #
#170
03
0/
0,
00
0-
b0 !
02
0.
0(
1)
b10101010 "
b10101010 #
#171
13
1/
1,
10
1-
11
b11111 !
12
1.
1(
b10101011 "
b10101011 #
#172
0-
10
b11110 !
02
0.
0(
0)
1*
b10101100 "
b10101100 #
#173
01
b11101 !
12
1.
1(
b10101101 "
b10101101 #
#174
10
0-
b11100 !
02
0.
0(
1)
b10101110 "
b10101110 #
#175
00
1-
11
b11011 !
12
1.
1(
b10101111 "
b10101111 #
#176
0,
0-
00
03
b1011 !
1/
0.
1$
0(
0)
0*
0+
b10110000 "
b10110000 #
#177
b1010 !
02
1(
b10110001 "
b10110001 #
#178
01
b1001 !
12
0(
1)
b10110010 "
b10110010 #
#179
b1000 !
02
1(
b10110011 "
b10110011 #
#180
0/
1,
11
10
b111 !
12
0(
0)
1*
b10110100 "
b10110100 #
#181
b110 !
02
1(
b10110101 "
b10110101 #
#182
01
b101 !
12
0(
1)
b10110110 "
b10110110 #
#183
b100 !
02
1(
b10110111 "
b10110111 #
#184
0,
11
00
03
0/
b11 !
12
0(
0)
0*
1+
b10111000 "
b10111000 #
#185
b10 !
02
1(
b10111001 "
b10111001 #
#186
01
b1 !
12
0(
1)
b10111010 "
b10111010 #
#187
b0 !
02
1(
b10111011 "
b10111011 #
#188
13
1/
1,
11
10
b11111 !
12
0(
0)
1*
b10111100 "
b10111100 #
#189
b11110 !
02
1(
b10111101 "
b10111101 #
#190
01
b11101 !
12
0(
1)
b10111110 "
b10111110 #
#191
b11100 !
02
1(
b10111111 "
b10111111 #
#192
0,
03
b1100 !
1/
0$
0(
0%
0)
1&
0*
0+
b11000000 "
b11000000 #
#193
00
1-
11
b1011 !
12
1.
1(
b11000001 "
b11000001 #
#194
b1010 !
02
0.
0(
1)
b11000010 "
b11000010 #
#195
01
b1001 !
12
1.
1(
b11000011 "
b11000011 #
#196
0-
1/
0,
00
b1000 !
02
0.
0(
0)
1*
b11000100 "
b11000100 #
#197
0/
1,
10
1-
11
b111 !
12
1.
1(
b11000101 "
b11000101 #
#198
b110 !
02
0.
0(
1)
b11000110 "
b11000110 #
#199
01
b101 !
12
1.
1(
b11000111 "
b11000111 #
#200
0-
0,
10
03
0/
b100 !
02
0.
0(
0)
0*
1+
b11001000 "
b11001000 #
#201
00
1-
11
b11 !
12
1.
1(
b11001001 "
b11001001 #
#202
b10 !
02
0.
0(
1)
b11001010 "
b11001010 #
#203
01
b1 !
12
1.
1(
b11001011 "
b11001011 #
#204
0-
03
0/
0,
00
b0 !
02
0.
0(
0)
1*
b11001100 "
b11001100 #
#205
13
1/
1,
10
1-
11
b11111 !
12
1.
1(
b11001101 "
b11001101 #
#206
b11110 !
02
0.
0(
1)
b11001110 "
b11001110 #
#207
01
b11101 !
12
1.
1(
b11001111 "
b11001111 #
#208
0-
0,
10
03
b1101 !
1/
0.
1$
0(
0)
0*
0+
b11010000 "
b11010000 #
#209
b1100 !
02
1(
b11010001 "
b11010001 #
#210
00
1-
11
b1011 !
12
0(
1)
b11010010 "
b11010010 #
#211
b1010 !
02
1(
b11010011 "
b11010011 #
#212
0-
1/
01
0,
00
b1001 !
12
0(
0)
1*
b11010100 "
b11010100 #
#213
b1000 !
02
1(
b11010101 "
b11010101 #
#214
0/
1,
10
1-
11
b111 !
12
0(
1)
b11010110 "
b11010110 #
#215
b110 !
02
1(
b11010111 "
b11010111 #
#216
0-
01
0,
10
03
0/
b101 !
12
0(
0)
0*
1+
b11011000 "
b11011000 #
#217
b100 !
02
1(
b11011001 "
b11011001 #
#218
00
1-
11
b11 !
12
0(
1)
b11011010 "
b11011010 #
#219
b10 !
02
1(
b11011011 "
b11011011 #
#220
03
0-
0/
01
0,
00
b1 !
12
0(
0)
1*
b11011100 "
b11011100 #
#221
b0 !
02
1(
b11011101 "
b11011101 #
#222
13
1/
1,
10
1-
11
b11111 !
12
0(
1)
b11011110 "
b11011110 #
#223
b11110 !
02
1(
b11011111 "
b11011111 #
#224
0-
0,
10
03
b1110 !
1/
0$
0(
1%
0)
0*
0+
b11100000 "
b11100000 #
#225
01
b1101 !
12
1.
1(
b11100001 "
b11100001 #
#226
10
0-
b1100 !
02
0.
0(
1)
b11100010 "
b11100010 #
#227
00
1-
11
b1011 !
12
1.
1(
b11100011 "
b11100011 #
#228
1/
0-
0,
00
b1010 !
02
0.
0(
0)
1*
b11100100 "
b11100100 #
#229
01
b1001 !
12
1.
1(
b11100101 "
b11100101 #
#230
1/
0,
00
0-
b1000 !
02
0.
0(
1)
b11100110 "
b11100110 #
#231
0/
1,
10
1-
11
b111 !
12
1.
1(
b11100111 "
b11100111 #
#232
0-
0,
10
03
0/
b110 !
02
0.
0(
0)
0*
1+
b11101000 "
b11101000 #
#233
01
b101 !
12
1.
1(
b11101001 "
b11101001 #
#234
10
0-
b100 !
02
0.
0(
1)
b11101010 "
b11101010 #
#235
00
1-
11
b11 !
12
1.
1(
b11101011 "
b11101011 #
#236
03
0/
0-
0,
00
b10 !
02
0.
0(
0)
1*
b11101100 "
b11101100 #
#237
01
b1 !
12
1.
1(
b11101101 "
b11101101 #
#238
03
0/
0,
00
0-
b0 !
02
0.
0(
1)
b11101110 "
b11101110 #
#239
13
1/
1,
10
1-
11
b11111 !
12
1.
1(
b11101111 "
b11101111 #
#240
0-
0,
10
03
b1111 !
1/
0.
1$
0(
0)
0*
0+
b11110000 "
b11110000 #
#241
b1110 !
02
1(
b11110001 "
b11110001 #
#242
01
b1101 !
12
0(
1)
b11110010 "
b11110010 #
#243
b1100 !
02
1(
b11110011 "
b11110011 #
#244
11
00
b1011 !
12
0(
0)
1*
b11110100 "
b11110100 #
#245
b1010 !
02
1(
b11110101 "
b11110101 #
#246
01
b1001 !
12
0(
1)
b11110110 "
b11110110 #
#247
b1000 !
02
1(
b11110111 "
b11110111 #
#248
11
10
0/
b111 !
12
0(
0)
0*
1+
b11111000 "
b11111000 #
#249
b110 !
02
1(
b11111001 "
b11111001 #
#250
01
b101 !
12
0(
1)
b11111010 "
b11111010 #
#251
b100 !
02
1(
b11111011 "
b11111011 #
#252
11
00
b11 !
12
0(
0)
1*
b11111100 "
b11111100 #
#253
b10 !
02
1(
b11111101 "
b11111101 #
#254
01
b1 !
12
0(
1)
b11111110 "
b11111110 #
#255
b0 !
02
1(
b11111111 "
b11111111 #
#256
b100000000 #
